[
  {
    "id": 1,
    "question": "How can we find the memory leaks in an app that uses MRC (Manual Reference Counting)?",
    "options": [
      {
        "id": "a",
        "option": "With Instruments",
        "imageUrl":"",
        "isCorrect": true
      },
      {
        "id": "a",
        "option": "With UITableView",
        "imageUrl":"",
        "isCorrect": false
      },
      {
        "id": "a",
        "option": "With IdentifierId",
        "imageUrl":"",
        "isCorrect": false
      },
      {
        "id": "a",
        "option": "With Recycle()",
        "imageUrl":"",
        "isCorrect": false
      }
    ],
    "explanation":{
      "deatils":"",
      "imageUrl":"",
      "reference":"https://www.tomdalling.com/blog/cocoa/an-in-depth-look-at-manual-memory-management-in-objective-c/"
    }
  },
  {
    "id": 2,
    "question": "How can we use a reusable cell in UITableView?",
    "options": [
      {
        "id": "a",
        "option": "By using dequeueReusableWithId",
        "imageUrl":"",
        "isCorrect": false
      },
      {
        "id": "a",
        "option": "By using dequeueReusableWithIdentifier",
        "imageUrl":"",
        "isCorrect": false
      },
      {
        "id": "a",
        "option": "By using dequeueReusableCellWithIdentifier",
        "imageUrl":"",
        "isCorrect": true
      },
      {
        "id": "a",
        "option": "By using dequeueReusableCellWithId",
        "imageUrl":"",
        "isCorrect": false
      }
    ],
    "explanation":{
      "deatils":"",
      "imageUrl":"https://chandrachudhquiz.netlify.app/v1/images/img1.png",
      "reference":""
    }
  }
]
